// Jest Snapshot v1, https://goo.gl/fbAQLP

exports[`<Button /> should render the button and content 1`] = `
<div>
  <button
    class="sc-beqWaB fyzWJx"
  >
    <p
      role="text"
    >
      Button
    </p>
  </button>
</div>
`;
